Exploratory Data Analysis - Gapminder Data
…
Right now gapminder has 1 row per country-lifeExp pair. We will nest all columns but country so we can model each country individually.

7.1.5.1 Fitting multiple models - population by country

Nest all columns besides country

country_coefficients <- gapminder %>%
  nest(-country) %>%
  mutate(models = map(data, ~ lm(pop ~ year, data = .)),
         tidied = map(models, tidy)) %>%
  unnest(tidied, .drop = TRUE)
country_coefficients

## # A tibble: 366 x 6
##    country     term           estimate  std.error statistic  p.value
##    <fct>       <chr>             <dbl>      <dbl>     <dbl>    <dbl>
##  1 Afghanistan (Intercept) -208090289. 21485618.      -9.69 4.50e-15
##  2 Afghanistan year            112813.    10949.      10.3  2.86e-16
##  3 Albania     (Intercept)  -30067333.  1802678.     -16.7  1.32e-27
##  4 Albania     year             16435.      919.      17.9  1.64e-29
##  5 Algeria     (Intercept) -335254051. 27215993.     -12.3  4.50e-20
##  6 Algeria     year            180462.    13869.      13.0  2.44e-21
##  7 Andorra     (Intercept)   -2763750.   109307.     -25.3  7.69e-28
##  8 Andorra     year              1415.       54.9     25.8  3.34e-28
##  9 Angola      (Intercept) -171173645. 18054046.      -9.48 1.12e-14
## 10 Angola      year             91987.     9200.      10.00 1.11e-15
## # ... with 356 more rows
Filter for only the slope terms and highly significant values

slope_terms <- country_coefficients %>%
filter(term == "year")
# Add p.adjusted column, then filter
filtered_countries <- slope_terms %>%
mutate(p.adjusted = p.adjust(p.value)) %>%
filter(p.adjusted < 0.05)

Sort for the countries population estimates in increasing order

filtered_countries %>%
arrange(estimate)

## # A tibble: 182 x 7
##    country           term  estimate std.error statistic  p.value p.adjusted
##    <fct>             <chr>    <dbl>     <dbl>     <dbl>    <dbl>      <dbl>
##  1 Dominica          year     -56.9     15.5      -3.68 6.39e- 4   1.28e- 3
##  2 Antigua and Barb~ year     277.      19.0      14.6  4.39e-24   4.31e-22
##  3 Greenland         year     289.      18.2      15.9  1.41e-24   1.43e-22
##  4 Aruba             year     353.      24.3      14.5  1.66e-22   1.38e-20
##  5 Grenada           year     422.       9.16     46.0  8.42e-59   1.43e-56
##  6 Kiribati          year     433.      32.2      13.5  3.93e-22   3.19e-20
##  7 Seychelles        year     449.      24.8      18.1  8.15e-30   1.02e-27
##  8 Tonga             year     537.      25.6      21.0  4.16e-34   5.45e-32
##  9 Micronesia, Fed.~ year     538.      38.2      14.1  3.15e-23   2.94e-21
## 10 Sao Tome and Pri~ year     735.      56.9      12.9  3.64e-21   2.62e-19
## # ... with 172 more rows

Dominica seems to the least populated.

Sort for the countries population estimates in decreasing order

filtered_countries %>%
arrange(desc(estimate))

## # A tibble: 182 x 7
##    country       term  estimate std.error statistic  p.value p.adjusted
##    <fct>         <chr>    <dbl>     <dbl>     <dbl>    <dbl>      <dbl>
##  1 China         year  5722807.   391532.      14.6 3.58e-24   3.58e-22
##  2 India         year  5596178.   424442.      13.2 1.19e-21   9.02e-20
##  3 United States year  1645937.    44101.      37.3 6.14e-52   1.01e-49
##  4 Indonesia     year  1233511.    80152.      15.4 1.74e-25   1.82e-23
##  5 Brazil        year  1091769.    65355.      16.7 1.20e-27   1.38e-25
##  6 Pakistan      year   808322.    71156.      11.4 2.76e-18   1.33e-16
##  7 Nigeria       year   743369.    63991.      11.6 9.07e-19   4.81e-17
##  8 Bangladesh    year   697208.    57900.      12.0 1.46e-19   8.85e-18
##  9 Russia        year   669973.    16725.      40.1 3.03e-54   5.06e-52
## 10 Mexico        year   617832.    43312.      14.3 1.46e-23   1.40e-21
## # ... with 172 more rows
…
Calculate the mean for each category

gap_height_complete %>% 
  group_by(cluster, country) %>% 
  summarise(mean(lifeExp),mean(income), n())

## # A tibble: 22 x 5
## # Groups:   cluster [5]
##    cluster country        `mean(lifeExp)` `mean(income)` `n()`
##      <int> <fct>                    <dbl>          <dbl> <int>
##  1       1 China                     34.6           869.    24
##  2       1 France                    40.0          2522.    10
##  3       1 India                     32.6          1056.    31
##  4       1 Japan                     37.4          1403.    13
##  5       1 United Kingdom            40.4          4044.     6
##  6       1 United States             39.4          3124.     9
##  7       2 China                     56.8           825.    21
##  8       2 France                    50.9          5012.     5
##  9       2 India                     55.6          1755.    41
## 10       2 Japan                     57.1          2990      6
## # ... with 12 more rows
…
Calculate the mean for each category

gap_complete %>% 
  group_by(cluster, country) %>% 
  summarise(mean(lifeExp), mean(income),n())

## # A tibble: 26 x 5
## # Groups:   cluster [6]
##    cluster country        `mean(lifeExp)` `mean(income)` `n()`
##      <int> <fct>                    <dbl>          <dbl> <int>
##  1       1 China                     34.6           869.    24
##  2       1 France                    40.0          2522.    10
##  3       1 India                     32.6          1056.    31
##  4       1 Japan                     37.4          1403.    13
##  5       1 United Kingdom            40.4          4044.     6
##  6       1 United States             39.4          3124.     9
##  7       2 China                     56.8           825.    21
##  8       2 France                    50.9          5012.     5
##  9       2 India                     55.6          1755.    41
## 10       2 Japan                     57.1          2990      6
## # ... with 16 more rows
…
